{
    "BusinessControllerConfig": {
        "CommandHandler": [],
        "BusinessControllerClass": "LoanModule/BusinessControllers/BusinessController"
    },
    "PresentationControllerConfig": {
        "Default": {
            "PresentationExtensions": [],
            "PresentationControllerClass": "LoanModule/PresentationControllers/PresentationController"
        }
    },
    "Forms": {
        "mobile": {
            "frmLoan": {
                "ControllerExtensions": [],
                "FormController": "kony.mvc.MDAFormController",
                "Controller": "LoanModule/frmLoanController",
                "FormName": "LoanModule/frmLoan",
                "friendlyName": "frmLoan"
            }
        }
    },
    "ModuleName": "LoanModule"
}