{
    "AS_Button_i42d717c9c3f4195b814c0ead9c2a983": {
        "id": "AS_Button_i42d717c9c3f4195b814c0ead9c2a983",
        "type": "ACTION_SEQUENCE",
        "params": [{
            "datatype": "collection",
            "name": "eventobject"
        }],
        "contextObj": {
            "name": "frmHome",
            "type": "forms",
            "platform": "",
            "KUID": "ce0b21abed0a4062b0ba3a43873154e3"
        },
        "language": "js",
        "actions": [{
            "id": "INVOKE_FUNCTION___ee5b5c860b164703841309edf462fc0a",
            "type": "INVOKE_FUNCTION",
            "sequenceKUID": "getTransactions",
            "display": "getTransactions",
            "inputparams": [],
            "parentId": null,
            "callbackType": null,
            "disabled": null,
            "source": "controller"
        }]
    }
}