{
    "AS_Button_d1717e32163e438aa76d5f6f6eab5c06": {
        "id": "AS_Button_d1717e32163e438aa76d5f6f6eab5c06",
        "type": "ACTION_SEQUENCE",
        "params": [{
            "datatype": "collection",
            "name": "eventobject"
        }],
        "contextObj": {
            "name": "frmHome",
            "type": "forms",
            "platform": "",
            "KUID": "ce0b21abed0a4062b0ba3a43873154e3"
        },
        "language": "js",
        "actions": [{
            "id": "INVOKE_FUNCTION___f5484e1acf7a49a3899423bc687d86ca",
            "type": "INVOKE_FUNCTION",
            "sequenceKUID": "displayLoanForm",
            "display": "displayLoanForm",
            "inputparams": [],
            "parentId": null,
            "callbackType": null,
            "disabled": null,
            "source": "controller"
        }]
    }
}