{
    "AS_Label_e55e780c7e0f498486fdb4c85bd62809": {
        "id": "AS_Label_e55e780c7e0f498486fdb4c85bd62809",
        "type": "ACTION_SEQUENCE",
        "params": [{
            "datatype": "collection",
            "name": "eventobject"
        }, {
            "datatype": "string",
            "name": "x"
        }, {
            "datatype": "string",
            "name": "y"
        }],
        "contextObj": {
            "name": "frmHome",
            "type": "forms",
            "platform": "",
            "KUID": "ce0b21abed0a4062b0ba3a43873154e3"
        },
        "language": "js",
        "actions": [{
            "id": "INVOKE_FUNCTION___i5015ee5543e40b3a5d6c2c13736c19b",
            "type": "INVOKE_FUNCTION",
            "sequenceKUID": "loadUpdateAccountForm",
            "display": "loadUpdateAccountForm",
            "inputparams": [],
            "parentId": null,
            "callbackType": null,
            "disabled": null,
            "source": "controller"
        }]
    }
}