{
    "AS_Label_i37d41cc8b8147b9a720db7eb8812f0a": {
        "id": "AS_Label_i37d41cc8b8147b9a720db7eb8812f0a",
        "type": "ACTION_SEQUENCE",
        "params": [{
            "datatype": "collection",
            "name": "eventobject"
        }, {
            "datatype": "string",
            "name": "x"
        }, {
            "datatype": "string",
            "name": "y"
        }],
        "contextObj": {
            "name": "frmTransactions",
            "type": "forms",
            "platform": "",
            "KUID": "a2b1bb9818d74d94995f78fadfab927b"
        },
        "language": "js",
        "actions": [{
            "id": "INVOKE_FUNCTION___dbf837376bc94336b3090ed468370898",
            "type": "INVOKE_FUNCTION",
            "sequenceKUID": "displayTransferForm",
            "display": "displayTransferForm",
            "inputparams": [],
            "parentId": null,
            "callbackType": null,
            "disabled": null,
            "source": "controller"
        }]
    }
}