{
    "AS_Segment_cc162fb0cf664601b62b836ebbf9e81f": {
        "id": "AS_Segment_cc162fb0cf664601b62b836ebbf9e81f",
        "type": "ACTION_SEQUENCE",
        "params": [{
            "datatype": "collection",
            "name": "eventobject"
        }, {
            "datatype": "number",
            "name": "sectionNumber"
        }, {
            "datatype": "number",
            "name": "rowNumber"
        }],
        "contextObj": {
            "name": "frmHome",
            "type": "forms",
            "platform": "",
            "KUID": "ce0b21abed0a4062b0ba3a43873154e3"
        },
        "language": "js",
        "actions": [{
            "id": "INVOKE_FUNCTION___f9f4a61ce692423791e199aa9b591ffd",
            "type": "INVOKE_FUNCTION",
            "sequenceKUID": "getTransactions",
            "display": "getTransactions",
            "inputparams": [],
            "parentId": null,
            "callbackType": null,
            "disabled": null,
            "source": "controller"
        }]
    }
}