{
    "@class": "com.kony.gen.viz.model.component.KVizButton",
    "DNDConfig": null,
    "__parentReadjusting__": false,
    "_height_": {
        "type": "string",
        "value": "50dp"
    },
    "_left_": {
        "type": "string",
        "value": "47dp"
    },
    "_margin_": [
        6,
        6,
        6,
        6
    ],
    "_padding_": [
        0,
        0,
        0,
        0
    ],
    "_skin_": "s425d16e24864cfe83262be59192e1bc",
    "_text_": "Submit",
    "_top_": {
        "type": "string",
        "value": "20dp"
    },
    "_width_": {
        "type": "string",
        "value": "200dp"
    },
    "canUpdateUI": true,
    "centerx": {
        "type": "string",
        "value": "50%"
    },
    "containerweight": 100,
    "contentalignment": 5,
    "displaytext": true,
    "focusskin": "s8c07041f90346b9a201c86fec7a6f37",
    "id": "btnSubmit",
    "ide_onClick": "AS_Button_d9abad09f5ad4bcc9e01e38c441aaf15",
    "info": null,
    "iscustomlayout": false,
    "isvisible": true,
    "kuid": "a32aa14ee3454e7fb7274b9f22000330",
    "name": "kony.ui.Button",
    "parent": "flxContent",
    "pf": "frmChangeName",
    "retaincontentalignment": false,
    "retainflexpositionproperties": false,
    "wType": "Button",
    "zindex": 1
}