{
    "@class": "com.kony.gen.viz.model.component.KVizTextBox2",
    "DNDConfig": null,
    "__parentReadjusting__": false,
    "_height_": {
        "type": "string",
        "value": "40dp"
    },
    "_margin_": [
        0,
        0,
        0,
        0
    ],
    "_padding_": [
        3,
        0,
        0,
        0
    ],
    "_placeholder_": "Enter terms in Months ...",
    "_right_": {
        "type": "string",
        "value": "4dp"
    },
    "_skin_": "s415aa2adb2542a7be54038a5f0cfd65",
    "_text_": "",
    "_top_": {
        "type": "string",
        "value": "10dp"
    },
    "_width_": {
        "type": "string",
        "value": "200dp"
    },
    "autocapitalize": "none",
    "autocomplete": false,
    "autocorrect": false,
    "autofilter": false,
    "canUpdateUI": true,
    "containerheight": "",
    "containerheightmode": 1,
    "containerweight": 100,
    "contentalignment": 4,
    "focusskin": "s0ce83b2068e406c8535aa4e553104b9",
    "id": "tbxTerms",
    "ide_onTextChange": "AS_TextField_fcba172b3dc54782a225a85aed6a8e29",
    "info": null,
    "iscustomlayout": false,
    "isvisible": true,
    "keyboardstyle": "digitpad",
    "keyboardtype": "A",
    "kuid": "aa0e3602c05a4f86ab2cd030175fd1f4",
    "mode": "N",
    "name": "kony.ui.TextBox2",
    "parent": "flxTerms",
    "pf": "frmLoan",
    "placeholderskin": "sbeea14d8ad3493db8a4fdc016f5cf6b",
    "retaincontentalignment": false,
    "retainflexpositionproperties": false,
    "securetextentry": false,
    "textinputmode": "N",
    "tooltip": "",
    "viewtype": "default",
    "wType": "TextField",
    "zindex": 1
}